%YAML 1.1
%TAG !u! tag:unity3d.com,2011:
--- !u!114 &11400000
MonoBehaviour:
  m_ObjectHideFlags: 0
  m_CorrespondingSourceObject: {fileID: 0}
  m_PrefabInstance: {fileID: 0}
  m_PrefabAsset: {fileID: 0}
  m_GameObject: {fileID: 0}
  m_Enabled: 1
  m_EditorHideFlags: 0
  m_Script: {fileID: 11500000, guid: 6bab9af8a7d6b4c42a46e2097f904abe, type: 3}
  m_Name: Dijkstra
  m_EditorClassIdentifier: 
  cardName: Dijkstra
  cardValue: 3
  sprCardImage: {fileID: 21300000, guid: 0fe2651e62aed5440965e96915bebe95, type: 3}
  ability: {fileID: 11400000, guid: 4feb3206853bdad43a27fc81f44527c6, type: 2}
